[
  {
    "model": "shopapp.product",
    "pk": 1,
    "fields": {
      "name": "Laptop",
      "description": "Lorem ipsum dolor sit amet, consectetur adipiscing elit, sed do eiusmod tempor incididunt ut labore et dolore magna aliqua. Ut enim ad minim veniam, quis nostrud exercitation ullamco laboris nisi ut aliquip ex ea commodo consequat. Duis aute irure dolor in reprehenderit in voluptate velit esse cillum dolore eu fugiat nulla pariatur. Excepteur sint occaecat cupidatat non proident, sunt in culpa qui officia deserunt mollit anim id est laborum.",
      "price": "93000.00",
      "discount": 0,
      "created_at": "2023-05-11T10:08:02.459Z",
      "products_count": 57,
      "is_instock": true,
      "archived": true,
      "created_by": 1
    }
  },
  {
    "model": "shopapp.product",
    "pk": 2,
    "fields": {
      "name": "Desktop",
      "description": "It's very smart.",
      "price": "162000.00",
      "discount": 10,
      "created_at": "2023-05-11T10:08:02.459Z",
      "products_count": 18,
      "is_instock": true,
      "archived": false,
      "created_by": 1
    }
  },
  {
    "model": "shopapp.product",
    "pk": 3,
    "fields": {
      "name": "Smartphone",
      "description": "Lorem ipsum dolor sit amet",
      "price": "17500.00",
      "discount": 25,
      "created_at": "2023-05-11T10:08:02.459Z",
      "products_count": 1025,
      "is_instock": true,
      "archived": true,
      "created_by": 1
    }
  },
  {
    "model": "shopapp.product",
    "pk": 4,
    "fields": {
      "name": "MSI Laptop",
      "description": "MSI\r\nLaptop",
      "price": "173200.00",
      "discount": 0,
      "created_at": "2023-05-14T23:21:45.555Z",
      "products_count": 1,
      "is_instock": true,
      "archived": false,
      "created_by": 1
    }
  },
  {
    "model": "shopapp.product",
    "pk": 5,
    "fields": {
      "name": "iPhone",
      "description": "Android is better than iPhone\r\nthis is great",
      "price": "120000.00",
      "discount": 0,
      "created_at": "2023-05-14T23:32:30.645Z",
      "products_count": 1,
      "is_instock": true,
      "archived": false,
      "created_by": 1
    }
  },
  {
    "model": "shopapp.product",
    "pk": 6,
    "fields": {
      "name": "Tablet for kids",
      "description": "Tablet for kids\r\nPrice in rub",
      "price": "6500.00",
      "discount": 7,
      "created_at": "2023-05-16T07:04:08.913Z",
      "products_count": 1,
      "is_instock": true,
      "archived": false,
      "created_by": 1
    }
  },
  {
    "model": "shopapp.product",
    "pk": 7,
    "fields": {
      "name": "Tablet Shine",
      "description": "Brand-new tablet",
      "price": "12300.00",
      "discount": 3,
      "created_at": "2023-05-16T07:37:09.251Z",
      "products_count": 1,
      "is_instock": true,
      "archived": false,
      "created_by": 1
    }
  },
  {
    "model": "shopapp.product",
    "pk": 8,
    "fields": {
      "name": "Nokia 3310",
      "description": "Old new Nokia",
      "price": "3600.00",
      "discount": 2,
      "created_at": "2023-05-16T10:07:49.812Z",
      "products_count": 1,
      "is_instock": true,
      "archived": true,
      "created_by": 1
    }
  },
  {
    "model": "shopapp.product",
    "pk": 9,
    "fields": {
      "name": "Phone 2",
      "description": "some phone",
      "price": "25453.00",
      "discount": 0,
      "created_at": "2023-05-17T19:54:50.752Z",
      "products_count": 1,
      "is_instock": true,
      "archived": true,
      "created_by": 2
    }
  },
  {
    "model": "shopapp.product",
    "pk": 10,
    "fields": {
      "name": "Test product",
      "description": "create product by phoebe as super user",
      "price": "0.43",
      "discount": 0,
      "created_at": "2023-05-24T21:26:08.300Z",
      "products_count": 1,
      "is_instock": true,
      "archived": false,
      "created_by": 3
    }
  },
  {
    "model": "shopapp.order",
    "pk": 1,
    "fields": {
      "delivery_address": "Naberezhnaya street, d. 12",
      "promocode": "SALE23",
      "created_at": "2023-05-11T11:04:48.816Z",
      "user": 1,
      "archived": false,
      "products": [
        2,
        1,
        3
      ]
    }
  },
  {
    "model": "shopapp.order",
    "pk": 2,
    "fields": {
      "delivery_address": "Tolstogo street, d.5",
      "promocode": "",
      "created_at": "2023-05-11T11:04:48.816Z",
      "user": 1,
      "archived": false,
      "products": [
        2,
        1
      ]
    }
  },
  {
    "model": "shopapp.order",
    "pk": 3,
    "fields": {
      "delivery_address": "dedw\r\nftddhikjd 23627yu\r\nddfd\r\n23323",
      "promocode": "",
      "created_at": "2023-05-16T07:40:40.860Z",
      "user": 1,
      "archived": true,
      "products": [
        7,
        5
      ]
    }
  },
  {
    "model": "shopapp.order",
    "pk": 4,
    "fields": {
      "delivery_address": "My new address: \r\n12334 232 \r\n332 Bridge",
      "promocode": "NEW2023",
      "created_at": "2023-05-16T10:19:47.355Z",
      "user": 1,
      "archived": false,
      "products": [
        1,
        4,
        8
      ]
    }
  },
  {
    "model": "shopapp.order",
    "pk": 5,
    "fields": {
      "delivery_address": "Some street",
      "promocode": "",
      "created_at": "2023-05-17T20:18:56.939Z",
      "user": 1,
      "archived": false,
      "products": [
        1
      ]
    }
  }
]